{
	"info": {
		"_postman_id": "f769da4e-dd6f-4082-bdc6-688132daa50e",
		"name": "Class",
		"schema": "https://schema.getpostman.com/json/collection/v2.1.0/collection.json"
	},
	"item": [
		{
			"name": "setClassPosition",
			"request": {
				"auth": {
					"type": "bearer",
					"bearer": [
						{
							"key": "token",
							"value": "eyJhbGciOiJIUzI1NiIsInppcCI6IkdaSVAifQ.H4sIAAAAAAAAAKtWyiwuVrJSKk9NSs4vSlXSUcpMLFGyMjQzMTQytDQwtdBRSq0ogAuYgQRKi1OL8hJzU4HaijJTyhPzlGoBRWraCkcAAAA.37zUGh-gTWfQ7luzJ3GzGtAPwZkpoBG3QB5j-wGJEfM",
							"type": "string"
						}
					]
				},
				"method": "PUT",
				"header": [],
				"url": {
					"raw": "localhost:8080/:username/classdiagram/:cdmName/class/:classId/position",
					"host": [
						"localhost"
					],
					"port": "8080",
					"path": [
						":username",
						"classdiagram",
						":cdmName",
						"class",
						":classId",
						"position"
					],
					"variable": [
						{
							"key": "username",
							"value": "bob"
						},
						{
							"key": "cdmName",
							"value": "MULTIPLE_CLASSES"
						},
						{
							"key": "classId",
							"value": null
						}
					]
				}
			},
			"response": []
		},
		{
			"name": "renameClass",
			"request": {
				"auth": {
					"type": "bearer",
					"bearer": [
						{
							"key": "token",
							"value": "eyJhbGciOiJIUzI1NiIsInppcCI6IkdaSVAifQ.H4sIAAAAAAAAAKtWyiwuVrJSKk9NSs4vSlXSUcpMLFGyMjQzMTQytDQwtdBRSq0ogAuYgQRKi1OL8hJzU4HaijJTyhPzlGoBRWraCkcAAAA.37zUGh-gTWfQ7luzJ3GzGtAPwZkpoBG3QB5j-wGJEfM",
							"type": "string"
						}
					]
				},
				"method": "PUT",
				"header": [],
				"url": {
					"raw": "localhost:8080/:username/classdiagram/:cdmName/class/:classId/rename",
					"host": [
						"localhost"
					],
					"port": "8080",
					"path": [
						":username",
						"classdiagram",
						":cdmName",
						"class",
						":classId",
						"rename"
					],
					"variable": [
						{
							"key": "username",
							"value": "bob"
						},
						{
							"key": "cdmName",
							"value": "MULTIPLE_CLASSES"
						},
						{
							"key": "classId",
							"value": null
						}
					]
				}
			},
			"response": []
		},
		{
			"name": "createAttribute",
			"request": {
				"auth": {
					"type": "bearer",
					"bearer": [
						{
							"key": "token",
							"value": "eyJhbGciOiJIUzI1NiIsInppcCI6IkdaSVAifQ.H4sIAAAAAAAAAKtWyiwuVrJSKk9NSs4vSlXSUcpMLFGyMjQzMTQytDQwtdBRSq0ogAuYgQRKi1OL8hJzU4HaijJTyhPzlGoBRWraCkcAAAA.37zUGh-gTWfQ7luzJ3GzGtAPwZkpoBG3QB5j-wGJEfM",
							"type": "string"
						}
					]
				},
				"method": "POST",
				"header": [],
				"body": {
					"mode": "raw",
					"raw": "{\r\n    \"attributeName\":\"sdfag\",\r\n    \"rankIndex\":1,\r\n    \"typeId\":53\r\n}",
					"options": {
						"raw": {
							"language": "json"
						}
					}
				},
				"url": {
					"raw": "localhost:8080/:username/classdiagram/:cdmName/class/:classId/attribute",
					"host": [
						"localhost"
					],
					"port": "8080",
					"path": [
						":username",
						"classdiagram",
						":cdmName",
						"class",
						":classId",
						"attribute"
					],
					"variable": [
						{
							"key": "username",
							"value": "bob"
						},
						{
							"key": "cdmName",
							"value": "MULTIPLE_CLASSES"
						},
						{
							"key": "classId",
							"value": "53"
						}
					]
				}
			},
			"response": []
		},
		{
			"name": "removeAttribute",
			"request": {
				"auth": {
					"type": "bearer",
					"bearer": [
						{
							"key": "token",
							"value": "eyJhbGciOiJIUzI1NiIsInppcCI6IkdaSVAifQ.H4sIAAAAAAAAAKtWyiwuVrJSKk9NSs4vSlXSUcpMLFGyMjQzMTQytDQwtdBRSq0ogAuYgQRKi1OL8hJzU4HaijJTyhPzlGoBRWraCkcAAAA.37zUGh-gTWfQ7luzJ3GzGtAPwZkpoBG3QB5j-wGJEfM",
							"type": "string"
						}
					]
				},
				"method": "DELETE",
				"header": [],
				"url": {
					"raw": "localhost:8080/:username/classdiagram/:cdmName/class/attribute/:attributeId",
					"host": [
						"localhost"
					],
					"port": "8080",
					"path": [
						":username",
						"classdiagram",
						":cdmName",
						"class",
						"attribute",
						":attributeId"
					],
					"variable": [
						{
							"key": "username",
							"value": "bob"
						},
						{
							"key": "cdmName",
							"value": "MULTIPLE_CLASSES"
						},
						{
							"key": "attributeId",
							"value": null
						}
					]
				}
			},
			"response": []
		},
		{
			"name": "createAttributeCopy",
			"request": {
				"auth": {
					"type": "bearer",
					"bearer": [
						{
							"key": "token",
							"value": "eyJhbGciOiJIUzI1NiIsInppcCI6IkdaSVAifQ.H4sIAAAAAAAAAKtWyiwuVrJSKk9NSs4vSlXSUcpMLFGyMjQzMTQytDQwtdBRSq0ogAuYgQRKi1OL8hJzU4HaijJTyhPzlGoBRWraCkcAAAA.37zUGh-gTWfQ7luzJ3GzGtAPwZkpoBG3QB5j-wGJEfM",
							"type": "string"
						}
					]
				},
				"method": "POST",
				"header": [],
				"url": {
					"raw": "localhost:8080/:username/classdiagram/:cdmName/class/attribute/:attributeId/copy",
					"host": [
						"localhost"
					],
					"port": "8080",
					"path": [
						":username",
						"classdiagram",
						":cdmName",
						"class",
						"attribute",
						":attributeId",
						"copy"
					],
					"variable": [
						{
							"key": "username",
							"value": "bob"
						},
						{
							"key": "cdmName",
							"value": "MULTIPLE_CLASSES"
						},
						{
							"key": "attributeId",
							"value": null
						}
					]
				}
			},
			"response": []
		},
		{
			"name": "setAttributePosition",
			"request": {
				"auth": {
					"type": "bearer",
					"bearer": [
						{
							"key": "token",
							"value": "eyJhbGciOiJIUzI1NiIsInppcCI6IkdaSVAifQ.H4sIAAAAAAAAAKtWyiwuVrJSKk9NSs4vSlXSUcpMLFGyMjQzMTQytDQwtdBRSq0ogAuYgQRKi1OL8hJzU4HaijJTyhPzlGoBRWraCkcAAAA.37zUGh-gTWfQ7luzJ3GzGtAPwZkpoBG3QB5j-wGJEfM",
							"type": "string"
						}
					]
				},
				"method": "PUT",
				"header": [],
				"url": {
					"raw": "localhost:8080/:username/classdiagram/:cdmName/class/attribute/:attributeId/position",
					"host": [
						"localhost"
					],
					"port": "8080",
					"path": [
						":username",
						"classdiagram",
						":cdmName",
						"class",
						"attribute",
						":attributeId",
						"position"
					],
					"variable": [
						{
							"key": "username",
							"value": "bob"
						},
						{
							"key": "cdmName",
							"value": "MULTIPLE_CLASSES"
						},
						{
							"key": "attributeId",
							"value": null
						}
					]
				}
			},
			"response": []
		},
		{
			"name": "createOperation",
			"request": {
				"auth": {
					"type": "bearer",
					"bearer": [
						{
							"key": "token",
							"value": "eyJhbGciOiJIUzI1NiIsInppcCI6IkdaSVAifQ.H4sIAAAAAAAAAKtWyiwuVrJSKk9NSs4vSlXSUcpMLFGyMjQzMTQytDQwtdBRSq0ogAuYgQRKi1OL8hJzU4HaijJTyhPzlGoBRWraCkcAAAA.37zUGh-gTWfQ7luzJ3GzGtAPwZkpoBG3QB5j-wGJEfM",
							"type": "string"
						}
					]
				},
				"method": "POST",
				"header": [],
				"body": {
					"mode": "raw",
					"raw": "{\r\n    \r\n}",
					"options": {
						"raw": {
							"language": "json"
						}
					}
				},
				"url": {
					"raw": "localhost:8080/:username/classdiagram/:cdmName/class/:classId/operation",
					"host": [
						"localhost"
					],
					"port": "8080",
					"path": [
						":username",
						"classdiagram",
						":cdmName",
						"class",
						":classId",
						"operation"
					],
					"variable": [
						{
							"key": "username",
							"value": "bob"
						},
						{
							"key": "cdmName",
							"value": "MULTIPLE_CLASSES"
						},
						{
							"key": "classId",
							"value": "53"
						}
					]
				}
			},
			"response": []
		},
		{
			"name": "removeOperation",
			"request": {
				"auth": {
					"type": "bearer",
					"bearer": [
						{
							"key": "token",
							"value": "eyJhbGciOiJIUzI1NiIsInppcCI6IkdaSVAifQ.H4sIAAAAAAAAAKtWyiwuVrJSKk9NSs4vSlXSUcpMLFGyMjQzMTQytDQwtdBRSq0ogAuYgQRKi1OL8hJzU4HaijJTyhPzlGoBRWraCkcAAAA.37zUGh-gTWfQ7luzJ3GzGtAPwZkpoBG3QB5j-wGJEfM",
							"type": "string"
						}
					]
				},
				"method": "DELETE",
				"header": [],
				"url": {
					"raw": "localhost:8080/:username/classdiagram/:cdmName/class/operation/:operationId",
					"host": [
						"localhost"
					],
					"port": "8080",
					"path": [
						":username",
						"classdiagram",
						":cdmName",
						"class",
						"operation",
						":operationId"
					],
					"variable": [
						{
							"key": "username",
							"value": "bob"
						},
						{
							"key": "cdmName",
							"value": "MULTIPLE_CLASSES"
						},
						{
							"key": "operationId",
							"value": null
						}
					]
				}
			},
			"response": []
		},
		{
			"name": "setOperationPosition",
			"request": {
				"auth": {
					"type": "bearer",
					"bearer": [
						{
							"key": "token",
							"value": "eyJhbGciOiJIUzI1NiIsInppcCI6IkdaSVAifQ.H4sIAAAAAAAAAKtWyiwuVrJSKk9NSs4vSlXSUcpMLFGyMjQzMTQytDQwtdBRSq0ogAuYgQRKi1OL8hJzU4HaijJTyhPzlGoBRWraCkcAAAA.37zUGh-gTWfQ7luzJ3GzGtAPwZkpoBG3QB5j-wGJEfM",
							"type": "string"
						}
					]
				},
				"method": "PUT",
				"header": [],
				"url": {
					"raw": "localhost:8080/:username/classdiagram/:cdmName/class/operation/:operationId/position",
					"host": [
						"localhost"
					],
					"port": "8080",
					"path": [
						":username",
						"classdiagram",
						":cdmName",
						"class",
						"operation",
						":operationId",
						"position"
					],
					"variable": [
						{
							"key": "username",
							"value": "bob"
						},
						{
							"key": "cdmName",
							"value": "MULTIPLE_CLASSES"
						},
						{
							"key": "operationId",
							"value": null
						}
					]
				}
			},
			"response": []
		},
		{
			"name": "setOperationVisibility",
			"request": {
				"auth": {
					"type": "bearer",
					"bearer": [
						{
							"key": "token",
							"value": "eyJhbGciOiJIUzI1NiIsInppcCI6IkdaSVAifQ.H4sIAAAAAAAAAKtWyiwuVrJSKk9NSs4vSlXSUcpMLFGyMjQzMTQytDQwtdBRSq0ogAuYgQRKi1OL8hJzU4HaijJTyhPzlGoBRWraCkcAAAA.37zUGh-gTWfQ7luzJ3GzGtAPwZkpoBG3QB5j-wGJEfM",
							"type": "string"
						}
					]
				},
				"method": "PUT",
				"header": [],
				"url": {
					"raw": "localhost:8080/:username/classdiagram/:cdmName/class/operation/:operationId/visibility",
					"host": [
						"localhost"
					],
					"port": "8080",
					"path": [
						":username",
						"classdiagram",
						":cdmName",
						"class",
						"operation",
						":operationId",
						"visibility"
					],
					"variable": [
						{
							"key": "username",
							"value": "bob"
						},
						{
							"key": "cdmName",
							"value": "MULTIPLE_CLASSES"
						},
						{
							"key": "operationId",
							"value": null
						}
					]
				}
			},
			"response": []
		},
		{
			"name": "createGetter",
			"request": {
				"auth": {
					"type": "bearer",
					"bearer": [
						{
							"key": "token",
							"value": "eyJhbGciOiJIUzI1NiIsInppcCI6IkdaSVAifQ.H4sIAAAAAAAAAKtWyiwuVrJSKk9NSs4vSlXSUcpMLFGyMjQzMTQytDQwtdBRSq0ogAuYgQRKi1OL8hJzU4HaijJTyhPzlGoBRWraCkcAAAA.37zUGh-gTWfQ7luzJ3GzGtAPwZkpoBG3QB5j-wGJEfM",
							"type": "string"
						}
					]
				},
				"method": "POST",
				"header": [],
				"url": {
					"raw": "localhost:8080/:username/classdiagram/:cdmName/class/attribute/:attributeId/getter",
					"host": [
						"localhost"
					],
					"port": "8080",
					"path": [
						":username",
						"classdiagram",
						":cdmName",
						"class",
						"attribute",
						":attributeId",
						"getter"
					],
					"variable": [
						{
							"key": "username",
							"value": "bob"
						},
						{
							"key": "cdmName",
							"value": "MULTIPLE_CLASSES"
						},
						{
							"key": "attributeId",
							"value": null
						}
					]
				}
			},
			"response": []
		},
		{
			"name": "createSetter",
			"request": {
				"auth": {
					"type": "bearer",
					"bearer": [
						{
							"key": "token",
							"value": "eyJhbGciOiJIUzI1NiIsInppcCI6IkdaSVAifQ.H4sIAAAAAAAAAKtWyiwuVrJSKk9NSs4vSlXSUcpMLFGyMjQzMTQytDQwtdBRSq0ogAuYgQRKi1OL8hJzU4HaijJTyhPzlGoBRWraCkcAAAA.37zUGh-gTWfQ7luzJ3GzGtAPwZkpoBG3QB5j-wGJEfM",
							"type": "string"
						}
					]
				},
				"method": "POST",
				"header": [],
				"url": {
					"raw": "localhost:8080/:username/classdiagram/:cdmName/class/attribute/:attributeId/setter",
					"host": [
						"localhost"
					],
					"port": "8080",
					"path": [
						":username",
						"classdiagram",
						":cdmName",
						"class",
						"attribute",
						":attributeId",
						"setter"
					],
					"variable": [
						{
							"key": "username",
							"value": "bob"
						},
						{
							"key": "cdmName",
							"value": "MULTIPLE_CLASSES"
						},
						{
							"key": "attributeId",
							"value": null
						}
					]
				}
			},
			"response": []
		},
		{
			"name": "createGetterAndSetter",
			"request": {
				"auth": {
					"type": "bearer",
					"bearer": [
						{
							"key": "token",
							"value": "eyJhbGciOiJIUzI1NiIsInppcCI6IkdaSVAifQ.H4sIAAAAAAAAAKtWyiwuVrJSKk9NSs4vSlXSUcpMLFGyMjQzMTQytDQwtdBRSq0ogAuYgQRKi1OL8hJzU4HaijJTyhPzlGoBRWraCkcAAAA.37zUGh-gTWfQ7luzJ3GzGtAPwZkpoBG3QB5j-wGJEfM",
							"type": "string"
						}
					]
				},
				"method": "POST",
				"header": [],
				"url": {
					"raw": "localhost:8080/:username/classdiagram/:cdmName/class/attribute/:attributeId/getterAndSetter",
					"host": [
						"localhost"
					],
					"port": "8080",
					"path": [
						":username",
						"classdiagram",
						":cdmName",
						"class",
						"attribute",
						":attributeId",
						"getterAndSetter"
					],
					"variable": [
						{
							"key": "username",
							"value": "bob"
						},
						{
							"key": "cdmName",
							"value": "MULTIPLE_CLASSES"
						},
						{
							"key": "attributeId",
							"value": null
						}
					]
				}
			},
			"response": []
		},
		{
			"name": "createConstructor",
			"request": {
				"auth": {
					"type": "bearer",
					"bearer": [
						{
							"key": "token",
							"value": "eyJhbGciOiJIUzI1NiIsInppcCI6IkdaSVAifQ.H4sIAAAAAAAAAKtWyiwuVrJSKk9NSs4vSlXSUcpMLFGyMjQzMTQytDQwtdBRSq0ogAuYgQRKi1OL8hJzU4HaijJTyhPzlGoBRWraCkcAAAA.37zUGh-gTWfQ7luzJ3GzGtAPwZkpoBG3QB5j-wGJEfM",
							"type": "string"
						}
					]
				},
				"method": "POST",
				"header": [],
				"url": {
					"raw": "localhost:8080/:username/classdiagram/:cdmName/class/:classId/constructor",
					"host": [
						"localhost"
					],
					"port": "8080",
					"path": [
						":username",
						"classdiagram",
						":cdmName",
						"class",
						":classId",
						"constructor"
					],
					"variable": [
						{
							"key": "username",
							"value": "bob"
						},
						{
							"key": "cdmName",
							"value": "MULTIPLE_CLASSES"
						},
						{
							"key": "classId",
							"value": null
						}
					]
				}
			},
			"response": []
		},
		{
			"name": "createDestructor",
			"request": {
				"auth": {
					"type": "bearer",
					"bearer": [
						{
							"key": "token",
							"value": "eyJhbGciOiJIUzI1NiIsInppcCI6IkdaSVAifQ.H4sIAAAAAAAAAKtWyiwuVrJSKk9NSs4vSlXSUcpMLFGyMjQzMTQytDQwtdBRSq0ogAuYgQRKi1OL8hJzU4HaijJTyhPzlGoBRWraCkcAAAA.37zUGh-gTWfQ7luzJ3GzGtAPwZkpoBG3QB5j-wGJEfM",
							"type": "string"
						}
					]
				},
				"method": "POST",
				"header": [],
				"url": {
					"raw": "localhost:8080/:username/classdiagram/:cdmName/class/:classId/destructor",
					"host": [
						"localhost"
					],
					"port": "8080",
					"path": [
						":username",
						"classdiagram",
						":cdmName",
						"class",
						":classId",
						"destructor"
					],
					"variable": [
						{
							"key": "username",
							"value": "bob"
						},
						{
							"key": "cdmName",
							"value": "MULTIPLE_CLASSES"
						},
						{
							"key": "classId",
							"value": null
						}
					]
				}
			},
			"response": []
		},
		{
			"name": "createParameter",
			"request": {
				"auth": {
					"type": "bearer",
					"bearer": [
						{
							"key": "token",
							"value": "eyJhbGciOiJIUzI1NiIsInppcCI6IkdaSVAifQ.H4sIAAAAAAAAAKtWyiwuVrJSKk9NSs4vSlXSUcpMLFGyMjQzMTQytDQwtdBRSq0ogAuYgQRKi1OL8hJzU4HaijJTyhPzlGoBRWraCkcAAAA.37zUGh-gTWfQ7luzJ3GzGtAPwZkpoBG3QB5j-wGJEfM",
							"type": "string"
						}
					]
				},
				"method": "POST",
				"header": [],
				"url": {
					"raw": "localhost:8080/:username/classdiagram/:cdmName/class/operation/:operationId/parameter",
					"host": [
						"localhost"
					],
					"port": "8080",
					"path": [
						":username",
						"classdiagram",
						":cdmName",
						"class",
						"operation",
						":operationId",
						"parameter"
					],
					"variable": [
						{
							"key": "username",
							"value": "bob"
						},
						{
							"key": "cdmName",
							"value": "MULTIPLE_CLASSES"
						},
						{
							"key": "operationId",
							"value": null
						}
					]
				}
			},
			"response": []
		},
		{
			"name": "removeParameter",
			"request": {
				"auth": {
					"type": "bearer",
					"bearer": [
						{
							"key": "token",
							"value": "eyJhbGciOiJIUzI1NiIsInppcCI6IkdaSVAifQ.H4sIAAAAAAAAAKtWyiwuVrJSKk9NSs4vSlXSUcpMLFGyMjQzMTQytDQwtdBRSq0ogAuYgQRKi1OL8hJzU4HaijJTyhPzlGoBRWraCkcAAAA.37zUGh-gTWfQ7luzJ3GzGtAPwZkpoBG3QB5j-wGJEfM",
							"type": "string"
						}
					]
				},
				"method": "DELETE",
				"header": [],
				"url": {
					"raw": "localhost:8080/:username/classdiagram/:cdmName/class/operation/parameter/:parameterId",
					"host": [
						"localhost"
					],
					"port": "8080",
					"path": [
						":username",
						"classdiagram",
						":cdmName",
						"class",
						"operation",
						"parameter",
						":parameterId"
					],
					"variable": [
						{
							"key": "username",
							"value": "bob"
						},
						{
							"key": "cdmName",
							"value": "MULTIPLE_CLASSES"
						},
						{
							"key": "parameterId",
							"value": null
						}
					]
				}
			},
			"response": []
		},
		{
			"name": "switchAbstract",
			"request": {
				"auth": {
					"type": "bearer",
					"bearer": [
						{
							"key": "token",
							"value": "eyJhbGciOiJIUzI1NiIsInppcCI6IkdaSVAifQ.H4sIAAAAAAAAAKtWyiwuVrJSKk9NSs4vSlXSUcpMLFGyMjQzMTQytDQwtdBRSq0ogAuYgQRKi1OL8hJzU4HaijJTyhPzlGoBRWraCkcAAAA.37zUGh-gTWfQ7luzJ3GzGtAPwZkpoBG3QB5j-wGJEfM",
							"type": "string"
						}
					]
				},
				"method": "PUT",
				"header": [],
				"url": {
					"raw": "localhost:8080/:username/classdiagram/:cdmName/class/:classId/abstract",
					"host": [
						"localhost"
					],
					"port": "8080",
					"path": [
						":username",
						"classdiagram",
						":cdmName",
						"class",
						":classId",
						"abstract"
					],
					"variable": [
						{
							"key": "username",
							"value": "bob"
						},
						{
							"key": "cdmName",
							"value": "MULTIPLE_CLASSES"
						},
						{
							"key": "classId",
							"value": null
						}
					]
				}
			},
			"response": []
		},
		{
			"name": "switchOperationAbstract",
			"request": {
				"auth": {
					"type": "bearer",
					"bearer": [
						{
							"key": "token",
							"value": "eyJhbGciOiJIUzI1NiIsInppcCI6IkdaSVAifQ.H4sIAAAAAAAAAKtWyiwuVrJSKk9NSs4vSlXSUcpMLFGyMjQzMTQytDQwtdBRSq0ogAuYgQRKi1OL8hJzU4HaijJTyhPzlGoBRWraCkcAAAA.37zUGh-gTWfQ7luzJ3GzGtAPwZkpoBG3QB5j-wGJEfM",
							"type": "string"
						}
					]
				},
				"method": "PUT",
				"header": [],
				"url": {
					"raw": "localhost:8080/:username/classdiagram/:cdmName/class/operation/:operationId/abstract",
					"host": [
						"localhost"
					],
					"port": "8080",
					"path": [
						":username",
						"classdiagram",
						":cdmName",
						"class",
						"operation",
						":operationId",
						"abstract"
					],
					"variable": [
						{
							"key": "username",
							"value": "bob"
						},
						{
							"key": "cdmName",
							"value": "MULTIPLE_CLASSES"
						},
						{
							"key": "operationId",
							"value": null
						}
					]
				}
			},
			"response": []
		},
		{
			"name": "switchOperationStatic",
			"request": {
				"auth": {
					"type": "bearer",
					"bearer": [
						{
							"key": "token",
							"value": "eyJhbGciOiJIUzI1NiIsInppcCI6IkdaSVAifQ.H4sIAAAAAAAAAKtWyiwuVrJSKk9NSs4vSlXSUcpMLFGyMjQzMTQytDQwtdBRSq0ogAuYgQRKi1OL8hJzU4HaijJTyhPzlGoBRWraCkcAAAA.37zUGh-gTWfQ7luzJ3GzGtAPwZkpoBG3QB5j-wGJEfM",
							"type": "string"
						}
					]
				},
				"method": "PUT",
				"header": [],
				"url": {
					"raw": "localhost:8080/:username/classdiagram/:cdmName/class/operation/:operationId/static",
					"host": [
						"localhost"
					],
					"port": "8080",
					"path": [
						":username",
						"classdiagram",
						":cdmName",
						"class",
						"operation",
						":operationId",
						"static"
					],
					"variable": [
						{
							"key": "username",
							"value": "bob"
						},
						{
							"key": "cdmName",
							"value": "MULTIPLE_CLASSES"
						},
						{
							"key": "operationId",
							"value": null
						}
					]
				}
			},
			"response": []
		},
		{
			"name": "switchAttributeStatic",
			"request": {
				"auth": {
					"type": "bearer",
					"bearer": [
						{
							"key": "token",
							"value": "eyJhbGciOiJIUzI1NiIsInppcCI6IkdaSVAifQ.H4sIAAAAAAAAAKtWyiwuVrJSKk9NSs4vSlXSUcpMLFGyMjQzMTQytDQwtdBRSq0ogAuYgQRKi1OL8hJzU4HaijJTyhPzlGoBRWraCkcAAAA.37zUGh-gTWfQ7luzJ3GzGtAPwZkpoBG3QB5j-wGJEfM",
							"type": "string"
						}
					]
				},
				"method": "PUT",
				"header": [],
				"url": {
					"raw": "localhost:8080/:username/classdiagram/:cdmName/class/attribute/:attributeId/static",
					"host": [
						"localhost"
					],
					"port": "8080",
					"path": [
						":username",
						"classdiagram",
						":cdmName",
						"class",
						"attribute",
						":attributeId",
						"static"
					],
					"variable": [
						{
							"key": "username",
							"value": "bob"
						},
						{
							"key": "cdmName",
							"value": "MULTIPLE_CLASSES"
						},
						{
							"key": "attributeId",
							"value": null
						}
					]
				}
			},
			"response": []
		}
	]
}